module hms_api

go 1.21

toolchain go1.23.1

require (
	github.com/gin-contrib/multitemplate v1.0.1
	github.com/gin-gonic/gin v1.10.0
	github.com/go-playground/validator/v10 v10.22.0
	github.com/gofiber/fiber/v2 v2.52.4
	github.com/gofiber/jwt/v2 v2.2.7
	github.com/golang-jwt/jwt/v5 v5.2.1
	github.com/google/uuid v1.6.0
	github.com/joho/godotenv v1.5.1
	github.com/prometheus/client_golang v1.20.4
	github.com/rs/zerolog v1.33.0
	github.com/sirupsen/logrus v1.9.3
	github.com/swaggo/swag v1.16.3
	github.com/xlzd/gotp v0.1.0
	golang.org/x/crypto v0.24.0
	gopkg.in/gomail.v2 v2.0.0-20160411212932-81ebce5c23df
	gorm.io/driver/mysql v1.5.7
	gorm.io/gorm v1.25.10
)

require (
	filippo.io/edwards25519 v1.1.0 // indirect
	github.com/andybalholm/brotli v1.1.0 // indirect
	github.com/beorn7/perks v1.0.1 // indirect
	github.com/bytedance/sonic/loader v0.1.1 // indirect
	github.com/cespare/xxhash/v2 v2.3.0 // indirect
	github.com/chenzhuoyu/iasm v0.9.1 // indirect
	github.com/cloudwego/base64x v0.1.4 // indirect
	github.com/cloudwego/iasm v0.2.0 // indirect
	github.com/go-openapi/swag v0.23.0 // indirect
	github.com/gofiber/utils/v2 v2.0.0-beta.4 // indirect
	github.com/golang-jwt/jwt/v4 v4.5.0 // indirect
	github.com/klauspost/compress v1.17.9 // indirect
	github.com/mattn/go-runewidth v0.0.15 // indirect
	github.com/munnerz/goautoneg v0.0.0-20191010083416-a7dc8b61c822 // indirect
	github.com/prometheus/client_model v0.6.1 // indirect
	github.com/prometheus/common v0.55.0 // indirect
	github.com/prometheus/procfs v0.15.1 // indirect
	github.com/rivo/uniseg v0.4.7 // indirect
	github.com/valyala/bytebufferpool v1.0.0 // indirect
	github.com/valyala/fasthttp v1.55.0 // indirect
	github.com/valyala/tcplisten v1.0.0 // indirect
	golang.org/x/xerrors v0.0.0-20200804184101-5ec99f83aff1 // indirect
)

require (
	github.com/DATA-DOG/go-sqlmock v1.5.0
	github.com/KyleBanks/depth v1.2.1 // indirect
	github.com/bytedance/sonic v1.11.9 // indirect
	github.com/chenzhuoyu/base64x v0.0.0-20230717121745-296ad89f973d // indirect
	github.com/fatih/color v1.17.0
	github.com/gabriel-vasile/mimetype v1.4.4 // indirect
	github.com/gin-contrib/sse v0.1.0 // indirect
	github.com/go-openapi/jsonpointer v0.21.0 // indirect
	github.com/go-openapi/jsonreference v0.21.0 // indirect
	github.com/go-openapi/spec v0.21.0 // indirect
	github.com/go-playground/locales v0.14.1 // indirect
	github.com/go-playground/universal-translator v0.18.1 // indirect
	github.com/go-sql-driver/mysql v1.8.1 // indirect
	github.com/goccy/go-json v0.10.3
	github.com/gofiber/fiber/v3 v3.0.0-beta.3
	github.com/jinzhu/inflection v1.0.0 // indirect
	github.com/jinzhu/now v1.1.5 // indirect
	github.com/josharian/intern v1.0.0 // indirect
	github.com/json-iterator/go v1.1.12 // indirect
	github.com/klauspost/cpuid/v2 v2.2.8 // indirect
	github.com/leodido/go-urn v1.4.0 // indirect
	github.com/mailru/easyjson v0.7.7 // indirect
	github.com/mattn/go-colorable v0.1.13 // indirect
	github.com/mattn/go-isatty v0.0.20 // indirect
	github.com/modern-go/concurrent v0.0.0-20180306012644-bacd9c7ef1dd // indirect
	github.com/modern-go/reflect2 v1.0.2 // indirect
	github.com/pelletier/go-toml/v2 v2.2.2 // indirect
	github.com/twitchyliquid64/golang-asm v0.15.1 // indirect
	github.com/ugorji/go/codec v1.2.12 // indirect
	golang.org/x/arch v0.8.0 // indirect
	golang.org/x/net v0.26.0 // indirect
	golang.org/x/sys v0.22.0 // indirect
	golang.org/x/text v0.16.0 // indirect
	golang.org/x/tools v0.22.0 // indirect
	google.golang.org/protobuf v1.34.2 // indirect
	gopkg.in/alexcesaro/quotedprintable.v3 v3.0.0-20150716171945-2caba252f4dc // indirect
	gopkg.in/yaml.v3 v3.0.1 // indirect
)
